 $url3    			= 'https://api.sendgrid.com/';			
        $sendGridCategory	= "Performance Scorecard";
        $clientMailTo       = 'kumar.varun3@intermesh.net';
        if($clientMailTo) {					
            $clientMailTo   = $clientMailTo;							
            $from      		= "customercare@indiamart.com";
            $from_name 		= "IndiaMART";
            // $cc        		= $employee_mail;
            $subject   		= "Proposal 123 has been approved";								
            $message   		= $html;										
            $fileName = 'sample.pdf';

            $filePath = Url::base(true).'/attachment/sample.pdf';
            // echo '<pre>'; print_r($filePath); die;
            // echo '<pre>'; print_r(Url::base()); die;
            // $file = base64_encode(file_get_contents($filePath));
       
            // echo $filePath; die;
            // echo'<pre>'; print_r($filePath.'/'.$fileName); die;

            $params      = array(
                'api_user' 	=> "rajkamal+vocfeedback@indiamart.com ",
                'api_key' 	=> "motherindia12",
                'x-smtpapi' => json_encode(array('category'=>$sendGridCategory,)),
                'to' 		=> $clientMailTo,	
                // 'cc'        => $employee_mail,
                'subject' 	=> $subject,
                'html'		=> $message,
                'from' 		=> $from,
                'fromname'  => $from_name,
                'category'  => $sendGridCategory,
                // 'file' => array( "DOC1.pdf" => "@" . realpath("/path/where/my/attachment/file/is/myfile.pdf") )
                'files['.$fileName.']' => '@'.$filePath
                
            );
            $request     = $url3 . 'api/mail.send.json';
            $session     = curl_init($request);
            curl_setopt($session, CURLOPT_POST, true);
            curl_setopt($session, CURLOPT_POSTFIELDS, $params);
            curl_setopt($session, CURLOPT_SSL_VERIFYHOST, 0);
            curl_setopt($session, CURLOPT_SSL_VERIFYPEER, 0);
            curl_setopt($session, CURLOPT_HEADER, false);
            curl_setopt($session, CURLOPT_RETURNTRANSFER, true);
            // curl_setopt($session,CURLOPT_CONNECTTIMEOUT, 1);
            // curl_setopt($session, CURLOPT_TIMEOUT, 1);
            $response = curl_exec($session);
            $curl_error=curl_error($session);
            // if(empty($curl_error)){
                $result=json_decode($response,true);
            // }
            // echo '<pre>'; print_r($result);
            // echo '<pre>'; print_r($curl_error); die;
            curl_close($session);	

            if(!empty($result)){
                Yii::$app->session->setFlash('success', "Mail Sent Successfully."); 
            }
        }